Division,WeightClassKg,Place,Name,Team,BodyweightKg,Best3SquatKg,Best3BenchKg,Best3DeadliftKg,TotalKg,Equipment,Event,Sex,BirthDate
Boys,51.71,1,Brodie Flores,Victoria West,49.71,197.31,113.4,179.17,489.88,Unlimited,SBD,M,
Boys,51.71,2,Christian Morales,Lake Belton,49.99,183.7,97.52,201.85,483.08,Unlimited,SBD,M,
Boys,51.71,3,Gabriel Guzman,Mission Sharyland,50.89,192.78,90.72,199.58,483.08,Unlimited,SBD,M,
Boys,51.71,4,Leonardo Sauceda,Edinburg Economedes,51.07,183.7,124.74,170.1,478.54,Unlimited,SBD,M,
Boys,51.71,5,Seth Fritz,Lake Belton,50.71,165.56,117.93,188.24,471.74,Unlimited,SBD,M,
Boys,51.71,6,Mark Ochoa,Gregory-Portland,50.76,183.7,108.86,179.17,471.74,Unlimited,SBD,M,
Boys,51.71,7,Issac Saldivar,Kyle Lehman,51.71,188.24,106.59,172.37,467.2,Unlimited,SBD,M,
Boys,51.71,8,Dashel Burrows,Sharyland Pioneer,50.89,183.7,108.86,165.56,458.13,Unlimited,SBD,M,
Boys,51.71,9,Julian Cabrera,Mercedes,51.17,188.24,108.86,161.03,458.13,Unlimited,SBD,M,
Boys,51.71,10,Victor Roberson,Victoria East,51.44,174.63,97.52,163.29,435.45,Unlimited,SBD,M,
Boys,51.71,11,Damian Ash,Royse City,51.62,172.37,97.52,158.76,428.64,Unlimited,SBD,M,
Boys,51.71,12,Carlos Cantu,McAllen Memorial,50.08,156.49,102.06,165.56,424.11,Unlimited,SBD,M,
Boys,51.71,13,Zaiden Olvera,Dickinson,50.12,156.49,113.4,149.69,419.57,Unlimited,SBD,M,
Boys,51.71,14,Landon Chesney,Northwest Eaton,50.71,156.49,102.06,156.49,415.04,Unlimited,SBD,M,
Boys,51.71,15,Daniel Arana,Belton,50.98,142.88,102.06,170.1,415.04,Unlimited,SBD,M,
Boys,51.71,16,Christian Ramos,Buda Johnson,50.8,161.03,106.59,133.81,401.43,Unlimited,SBD,M,
Boys,51.71,17,Sergio Perales,Midland Legacy,51.17,147.42,88.45,165.56,401.43,Unlimited,SBD,M,
Boys,51.71,18,Zailyn Butler,Sherman,51.26,156.49,95.25,149.69,401.43,Unlimited,SBD,M,
Boys,51.71,19,Cooper Hooks,Huntsville,51.07,145.15,88.45,151.95,385.55,Unlimited,SBD,M,
Boys,51.71,20,Carmine Benavides,Texas City,51.71,136.08,97.52,147.42,381.02,Unlimited,SBD,M,
Boys,51.71,21,Kam Rodriguez,Houston Spring Woods,49.99,142.88,79.38,151.95,374.21,Unlimited,SBD,M,
Boys,51.71,NS,Caleb Moreno,La Joya,,,,,,Unlimited,SBD,M,
Boys,51.71,NS,Humberto Soto,Brownsville Veterans Memorial,,,,,,Unlimited,SBD,M,
Boys,51.71,NS,Eduardo Soto,Brownsville Veterans Memorial,,,,,,Unlimited,SBD,M,
Boys,51.71,NS,Joe Cruz,Edinburg North,,,,,,Unlimited,SBD,M,
Boys,51.71,DQ,James Medrano,Seguin,51.62,206.38,124.74,,,Unlimited,SBD,M,
Boys,55.79,1,Deondre Moody,Donna North,55.43,263.08,170.1,226.8,659.98,Unlimited,SBD,M,
Boys,55.79,2,Ethan Hernandez,Harlingen South,55.34,226.8,145.15,183.7,555.65,Unlimited,SBD,M,
Boys,55.79,3,Trey Shirey,Prosper,54.61,199.58,133.81,201.85,535.24,Unlimited,SBD,M,
Boys,55.79,4,Cesar Perez,Edcouch-Elsa,55.25,199.58,122.47,199.58,521.63,Unlimited,SBD,M,
Boys,55.79,5,A Phi Le,Pflugerville,54.16,208.65,124.74,181.44,514.83,Unlimited,SBD,M,
Boys,55.79,6,Gerardo Sanchez,Mercedes,53.89,197.31,102.06,213.19,512.56,Unlimited,SBD,M,
Boys,55.79,7,Ethaniel Avila,San Antonio East Central,55.52,208.65,129.27,174.63,512.56,Unlimited,SBD,M,
Boys,55.79,8,Jayden Malone,Liberty Hill,55.43,204.12,117.93,183.7,505.76,Unlimited,SBD,M,
Boys,55.79,9,Christopher Lopez,Los Fresnos,55.34,195.04,104.33,195.04,494.42,Unlimited,SBD,M,
Boys,55.79,10,Joe Alarcon,Victoria East,54.52,190.51,115.67,176.9,483.08,Unlimited,SBD,M,
Boys,55.79,11,Bryce Wiley,Conroe The Woodlands,55.34,192.78,104.33,183.7,480.81,Unlimited,SBD,M,
Boys,55.79,12,Yahir Hernandez,Edinburg North,54.52,188.24,102.06,183.7,474,Unlimited,SBD,M,
Boys,55.79,13,Gabriel Rodriguez,Comal Canyon,55.25,181.44,104.33,183.7,469.47,Unlimited,SBD,M,
Boys,55.79,14,Isaac Camacho,San Antonio East Central,55.34,183.7,106.59,174.63,464.93,Unlimited,SBD,M,
Boys,55.79,15,Jaden Rodriguez,Donna,53.89,167.83,113.4,179.17,460.4,Unlimited,SBD,M,
Boys,55.79,16,Andre Quiroz,Odessa Permian,54.98,170.1,99.79,185.97,455.86,Unlimited,SBD,M,
Boys,55.79,17,Erasmo Rodriguez,La Joya,55.07,185.97,102.06,167.83,455.86,Unlimited,SBD,M,
Boys,55.79,18,Kevin Chavez,Royse City,54.79,185.97,86.18,181.44,453.59,Unlimited,SBD,M,
Boys,55.79,19,Yves Pham,Alvin Shadow Creek,55.79,163.29,104.33,183.7,451.32,Unlimited,SBD,M,
Boys,55.79,20,Jayson Clark,Marshall,54.79,147.42,99.79,174.63,421.84,Unlimited,SBD,M,
Boys,55.79,21,Joseph Guzman,Lockhart,55.61,154.22,92.99,165.56,412.77,Unlimited,SBD,M,
Boys,55.79,22,Braeden DeHoyos,Fort Worth Boswell,55.34,145.15,106.59,147.42,399.16,Unlimited,SBD,M,
Boys,55.79,DQ,Jayce Gonzales,Liberty Hill,54.79,181.44,97.52,,,Unlimited,SBD,M,
Boys,55.79,DQ,Douglas Armstrong,Donna,55.34,,,,,Unlimited,SBD,M,
Boys,55.79,DQ,Tadeo Talavera,Del Rio,55.34,,,,,Unlimited,SBD,M,
Boys,59.87,1,Nate Cavarrubio,Buda Johnson,59.42,238.14,142.88,226.8,607.81,Unlimited,SBD,M,
Boys,59.87,2,Jorge Martinez,Los Fresnos,59.33,224.53,165.56,215.46,605.55,Unlimited,SBD,M,
Boys,59.87,3,Avery Crouch,San Antonio Veterans Memorial,57.97,249.48,138.35,213.19,601.01,Unlimited,SBD,M,
Boys,59.87,4,Jeremy Salazar,Donna North,59.6,235.87,142.88,210.92,589.67,Unlimited,SBD,M,
Boys,59.87,5,Ulises Enriquez,Mercedes,59.87,219.99,124.74,217.72,562.45,Unlimited,SBD,M,
Boys,59.87,6,Martin Alvarez,Weslaco,58.88,215.46,129.27,210.92,555.65,Unlimited,SBD,M,
Boys,59.87,7,Tank Nguyen,Conroe,59.42,210.92,127.01,217.72,555.65,Unlimited,SBD,M,
Boys,59.87,8,Omar Salinas,League City Clear Creek,59.06,199.58,136.08,215.46,551.11,Unlimited,SBD,M,
Boys,59.87,9,Brian Maldonado,Mercedes,59.6,208.65,113.4,215.46,537.51,Unlimited,SBD,M,
Boys,59.87,10,Angel Trevino,San Benito,59.24,201.85,147.42,183.7,532.97,Unlimited,SBD,M,
Boys,59.87,11,Eric Ontiveros,Liberty Hill,59.6,183.7,127.01,208.65,519.36,Unlimited,SBD,M,
Boys,59.87,12,Alan Hard,Azle,59.33,197.31,127.01,185.97,510.29,Unlimited,SBD,M,
Boys,59.87,13,Bralyn Harris,Texas City,58.88,192.78,92.99,215.46,501.22,Unlimited,SBD,M,
Boys,59.87,14,Ayden Kamenicky,Pflugerville Hendrickson,59.24,174.63,115.67,210.92,501.22,Unlimited,SBD,M,
Boys,59.87,15,Jordan Brown,Keller Central,59.38,206.38,104.33,185.97,496.68,Unlimited,SBD,M,
Boys,59.87,16,Steven Tran,Houston Aldine,59.33,190.51,108.86,195.04,494.42,Unlimited,SBD,M,
Boys,59.87,17,Jack Carroll,Dallas Highland Park,58.06,188.24,127.01,167.83,483.08,Unlimited,SBD,M,
Boys,59.87,DQ,Isaiah Loya,Brownsville Hanna,59.15,,,,,Unlimited,SBD,M,
Boys,59.87,DQ,Ismael Hernandez,Pasadena South Houston,59.33,,,,,Unlimited,SBD,M,
Boys,59.87,NS,Alan Jaramillo,Sherman,,,,,,Unlimited,SBD,M,
Boys,59.87,DQ,Nathan Kolstad,Royse City,59.87,,,,,Unlimited,SBD,M,
Boys,59.87,DQ,Santi Rogel,Donna North,58.97,,,,,Unlimited,SBD,M,
Boys,59.87,DQ,Ruben Robles,McAllen Memorial,57.61,,,,,Unlimited,SBD,M,
Boys,59.87,DQ,Rick Reyna,McAllen Memorial,58.6,,,,,Unlimited,SBD,M,
Boys,67.13,1,Devon Trevino,Mercedes,66.13,267.62,167.83,242.67,678.12,Unlimited,SBD,M,
Boys,67.13,2,Aaron Arratia,Dickinson,66.95,272.16,142.88,244.94,659.98,Unlimited,SBD,M,
Boys,67.13,3,Nick Perez,Brownsville Pace,66.22,258.55,163.29,235.87,657.71,Unlimited,SBD,M,
Boys,67.13,4,Isaiah Castro,Mercedes,66.22,260.82,158.76,233.6,653.17,Unlimited,SBD,M,
Boys,67.13,5,Mason Gwosdz,Victoria East,66.41,267.62,151.95,229.06,648.64,Unlimited,SBD,M,
Boys,67.13,6,Draven Garza,Victoria East,65.14,247.21,156.49,229.06,632.76,Unlimited,SBD,M,
Boys,67.13,7,David Hamilton,Buda Johnson,66.04,251.74,142.88,238.14,632.76,Unlimited,SBD,M,
Boys,67.13,8,Jayden Ramos,San Antonio East Central,64.68,247.21,183.7,199.58,630.49,Unlimited,SBD,M,
Boys,67.13,9,Javier Pena,Joshua,65.54,242.67,142.88,242.67,628.23,Unlimited,SBD,M,
Boys,67.13,10,Diego Mercado,McAllen Rowe,65.68,251.74,170.1,206.38,628.23,Unlimited,SBD,M,
Boys,67.13,11,Emmanuel Martinez,Princeton,66.22,229.06,170.1,222.26,621.42,Unlimited,SBD,M,
Boys,67.13,12,Macoy Noack,Conroe The Woodlands,66.32,238.14,163.29,206.38,607.81,Unlimited,SBD,M,
Boys,67.13,13,Michael Lerma,Weslaco,65.77,242.67,124.74,235.87,603.28,Unlimited,SBD,M,
Boys,67.13,14,Aiden Scurlock,McAllen,66.22,235.87,142.88,215.46,594.21,Unlimited,SBD,M,
Boys,67.13,15,Earl Williams,Longview Pine Tree,64.77,226.8,147.42,215.46,589.67,Unlimited,SBD,M,
Boys,67.13,16,Jaxx Marsden,Keller Timber Creek,66.18,215.46,154.22,219.99,589.67,Unlimited,SBD,M,
Boys,67.13,17,Miguel Garcia,Waller,67.04,238.14,111.13,238.14,587.4,Unlimited,SBD,M,
Boys,67.13,18,Enzo Altamirano,Conroe,66.13,231.33,142.88,208.65,582.87,Unlimited,SBD,M,
Boys,67.13,19,Michael Lopez,Princeton,65.95,240.4,142.88,195.04,578.33,Unlimited,SBD,M,
Boys,67.13,20,Ethan Nguyen,Mansfield Summit,66.86,197.31,113.4,260.82,571.53,Unlimited,SBD,M,
Boys,67.13,21,Riley Fougeron,Conroe Woodlands College Park,65.95,206.38,147.42,213.19,566.99,Unlimited,SBD,M,
Boys,67.13,22,Jesus Alaniz,Alvin,67.04,219.99,124.74,222.26,566.99,Unlimited,SBD,M,
Boys,67.13,23,Grayson Weeks,Dayton,66.13,199.58,136.08,226.8,562.45,Unlimited,SBD,M,
Boys,67.13,24,Ajay Adharsan,Nederland,66.13,188.24,140.61,229.06,557.92,Unlimited,SBD,M,
Boys,67.13,25,John Tan,College Station,66.32,204.12,149.69,204.12,557.92,Unlimited,SBD,M,
Boys,67.13,26,Dewayne Simmons,Waco,66.59,217.72,131.54,206.38,555.65,Unlimited,SBD,M,
Boys,67.13,27,Abraham Perez,San Antonio East Central,66.59,222.26,138.35,192.78,553.38,Unlimited,SBD,M,
Boys,67.13,28,Jacob Gonzalez,Buda Johnson,66.22,204.12,133.81,210.92,548.85,Unlimited,SBD,M,
Boys,67.13,29,Owen Garcia,Pflugerville Connally,66.68,195.04,161.03,192.78,548.85,Unlimited,SBD,M,
Boys,67.13,30,Tri Mai,Dickinson,66.36,195.04,145.15,199.58,539.77,Unlimited,SBD,M,
Boys,67.13,31,Landry Hoffman,Royse City,67.13,195.04,142.88,183.7,521.63,Unlimited,SBD,M,
Boys,67.13,DQ,Payten Fields,Red Oak,66.13,217.72,151.95,,,Unlimited,SBD,M,
Boys,67.13,DQ,Manny Vargas,South San Antonio,66.86,260.82,181.44,,,Unlimited,SBD,M,
Boys,67.13,DQ,Elite Vu,Alvin Shadow Creek,67.13,,,,,Unlimited,SBD,M,
Boys,67.13,DQ,Jonathan Hernandez,Edinburg Economedes,66.77,215.46,136.08,,,Unlimited,SBD,M,
Boys,67.13,DQ,Grayson Thomas,Burleson,66.86,,,,,Unlimited,SBD,M,
Boys,67.13,DQ,Caleb Henderson,Conroe Oak Ridge,67.13,226.8,,,,Unlimited,SBD,M,
Boys,67.13,DQ,Jason Kimberly,Montgomery,66.13,204.12,136.08,,,Unlimited,SBD,M,
Boys,67.13,DQ,Gadiel Andrade,Laredo United,65.68,,,,,Unlimited,SBD,M,
Boys,74.84,1,Michael Gonzalez,Brenham,73.03,299.37,181.44,272.16,752.96,Unlimited,SBD,M,
Boys,74.84,2,Devin Aguilar,Edinburg North,74.12,301.64,192.78,233.6,728.02,Unlimited,SBD,M,
Boys,74.84,3,Easton McMillan,Forney,73.84,278.96,210.92,235.87,725.75,Unlimited,SBD,M,
Boys,74.84,4,Jesus Cantu,Edinburg Economedes,73.21,288.03,188.24,244.94,721.21,Unlimited,SBD,M,
Boys,74.84,5,Jason Duran,Victoria West,74.75,260.82,179.17,260.82,700.8,Unlimited,SBD,M,
Boys,74.84,6,Randal Delgado,Victoria East,74.3,297.1,170.1,231.33,698.53,Unlimited,SBD,M,
Boys,74.84,7,Alejandro Arroyo,Elgin,73.57,299.37,170.1,226.8,696.26,Unlimited,SBD,M,
Boys,74.84,8,Caysen Guerra,Nederland,73.75,272.16,165.56,254.01,691.73,Unlimited,SBD,M,
Boys,74.84,9,Juan Sanchez,Edinburg North,73.84,283.5,154.22,249.48,687.19,Unlimited,SBD,M,
Boys,74.84,10,Jaidan Alaniz,La Joya,73.39,265.35,158.76,256.28,680.39,Unlimited,SBD,M,
Boys,74.84,11,Max Sellers,Ennis,73.39,267.62,167.83,242.67,678.12,Unlimited,SBD,M,
Boys,74.84,12,Michael Garza,Wolfforth Frenship,73.39,254.01,192.78,226.8,673.58,Unlimited,SBD,M,
Boys,74.84,13,Atticus Miller,Waco,73.66,240.4,161.03,272.16,673.58,Unlimited,SBD,M,
Boys,74.84,14,Nickolas Guitron,Los Fresnos,71.76,247.21,172.37,244.94,664.51,Unlimited,SBD,M,
Boys,74.84,15,Alex Hunt,Conroe Woodlands College Park,72.76,242.67,181.44,240.4,664.51,Unlimited,SBD,M,
Boys,74.84,16,Eduardo Cervantes,McAllen,73.03,249.48,163.29,247.21,659.98,Unlimited,SBD,M,
Boys,74.84,17,Kaden Chase,Northwest Eaton,73.94,263.08,163.29,229.06,655.44,Unlimited,SBD,M,
Boys,74.84,18,Jorge Herrera,Del Rio,71.12,272.16,158.76,222.26,653.17,Unlimited,SBD,M,
Boys,74.84,19,Armando Chapa,La Joya Palmview,73.57,260.82,167.83,224.53,653.17,Unlimited,SBD,M,
Boys,74.84,20,Isaac Estrada,Edcouch-Elsa,74.66,256.28,149.69,233.6,639.57,Unlimited,SBD,M,
Boys,74.84,21,Daniel Reynolds,Keller,74.21,256.28,154.22,226.8,637.3,Unlimited,SBD,M,
Boys,74.84,22,Jacob Faz,Edinburg North,74.48,226.8,147.42,260.82,635.03,Unlimited,SBD,M,
Boys,74.84,23,Julio Guzman,Killeen Ellison,71.58,251.74,142.88,235.87,630.49,Unlimited,SBD,M,
Boys,74.84,24,Hunter Branson,Hallsville,72.85,249.48,165.56,215.46,630.49,Unlimited,SBD,M,
Boys,74.84,25,Ethan Hunt,Denison,73.57,226.8,165.56,238.14,630.49,Unlimited,SBD,M,
Boys,74.84,26,Chris Moctezuma,Santa Fe,73.75,263.08,158.76,201.85,623.69,Unlimited,SBD,M,
Boys,74.84,27,Stone Dismukes,Buda Johnson,73.48,242.67,167.83,210.92,621.42,Unlimited,SBD,M,
Boys,74.84,28,Leo Anguiano,Prosper,69.85,226.8,165.56,226.8,619.15,Unlimited,SBD,M,
Boys,74.84,29,Josiah Harrison,Temple,73.03,233.6,136.08,249.48,619.15,Unlimited,SBD,M,
Boys,74.84,30,Tristen Munoz,Dickinson,73.3,235.87,154.22,224.53,614.62,Unlimited,SBD,M,
Boys,74.84,31,Alex Pena,Sherman,72.85,240.4,142.88,229.06,612.35,Unlimited,SBD,M,
Boys,74.84,32,Nick Luangrath,Keller Central,73.35,247.21,158.76,204.12,610.08,Unlimited,SBD,M,
Boys,74.84,33,Jamal Abercrumbia,Pflugerville Connally,72.39,226.8,156.49,224.53,607.81,Unlimited,SBD,M,
Boys,74.84,34,Kai Stewart,Red Oak,73.66,256.28,136.08,215.46,607.81,Unlimited,SBD,M,
Boys,74.84,35,Christopher Matias,Mansfield Lake Ridge,74.03,219.99,151.95,226.8,598.74,Unlimited,SBD,M,
Boys,74.84,36,Bryce Moore,Conroe Grand Oaks,73.84,226.8,136.08,233.6,596.47,Unlimited,SBD,M,
Boys,74.84,37,Austin Stutts,Frisco Wakeland,74.12,226.8,147.42,215.46,589.67,Unlimited,SBD,M,
Boys,74.84,38,Kaiden Warren,Magnolia West,72.3,226.8,151.95,206.38,585.13,Unlimited,SBD,M,
Boys,74.84,39,Nathan Giddons,Keller Timber Creek,74.57,229.06,149.69,204.12,582.87,Unlimited,SBD,M,
Boys,74.84,40,Kaden McMilan,Montgomery,71.94,215.46,158.76,204.12,578.33,Unlimited,SBD,M,
Boys,74.84,41,Zayd Allan,Mansfield Lake Ridge,73.84,215.46,147.42,204.12,566.99,Unlimited,SBD,M,
Boys,74.84,NS,Colton Olsen,Conroe Oak Ridge,,,,,,Unlimited,SBD,M,
Boys,74.84,NS,Cay Golden,Coppell,,,,,,Unlimited,SBD,M,
Boys,74.84,DQ,Kalen Chometsky,Conroe The Woodlands,71.3,,,,,Unlimited,SBD,M,
Boys,74.84,DQ,Jabari Smith,Burleson,73.84,,,,,Unlimited,SBD,M,
Boys,74.84,DQ,Aiden Juarez,Burleson,74.48,,,,,Unlimited,SBD,M,
Boys,82.1,1,Chase Rhodes,Austin Westlake,81.01,337.93,217.72,297.1,852.75,Unlimited,SBD,M,
Boys,82.1,2,Colton Monroe,Bishop Lynch,80.47,317.51,206.38,272.16,796.05,Unlimited,SBD,M,
Boys,82.1,3,Jayden Flores,Pasadena South Houston,79.38,317.51,190.51,267.62,775.64,Unlimited,SBD,M,
Boys,82.1,4,Cayden Clayton,Conroe The Woodlands,80.83,312.98,201.85,249.48,764.3,Unlimited,SBD,M,
Boys,82.1,5,Malachi Gray,Longview Pine Tree,82.01,256.28,183.7,317.51,757.5,Unlimited,SBD,M,
Boys,82.1,6,Jesse Rodgers,Conroe Grand Oaks,80.56,281.23,204.12,258.55,743.89,Unlimited,SBD,M,
Boys,82.1,7,Angel Sanchez,Donna North,81.1,317.51,165.56,256.28,739.36,Unlimited,SBD,M,
Boys,82.1,8,Juan Ramirez,Castroville Medina Valley,80.65,288.03,163.29,272.16,723.48,Unlimited,SBD,M,
Boys,82.1,9,Jacob Broussard,Brownsville Hanna,81.74,278.96,210.92,231.33,721.21,Unlimited,SBD,M,
Boys,82.1,10,Bailey Ohrn,Frisco Emerson,80.56,272.16,192.78,247.21,712.14,Unlimited,SBD,M,
Boys,82.1,11,Richard DeLaGarza,San Antonio Southside,81.92,256.28,181.44,272.16,709.87,Unlimited,SBD,M,
Boys,82.1,12,Ethan Haynes,Willis,79.38,308.44,149.69,244.94,703.07,Unlimited,SBD,M,
Boys,82.1,13,Michael Griger,Denison,81.47,265.35,174.63,260.82,700.8,Unlimited,SBD,M,
Boys,82.1,14,Brooks Woodruff,Conroe The Woodlands,81.01,272.16,165.56,260.82,698.53,Unlimited,SBD,M,
Boys,82.1,15,Angel Martinez,Baytown Sterling,79.74,281.23,165.56,242.67,689.46,Unlimited,SBD,M,
Boys,82.1,16,David Ramos,South San Antonio,80.47,249.48,192.78,238.14,680.39,Unlimited,SBD,M,
Boys,82.1,17,Heston Garza,Edcouch-Elsa,81.83,274.42,167.83,238.14,680.39,Unlimited,SBD,M,
Boys,82.1,18,Lupe Garcia,PSJA Southwest,82.01,260.82,165.56,254.01,680.39,Unlimited,SBD,M,
Boys,82.1,19,Fisher Chung,Buda Johnson,81.47,272.16,170.1,235.87,678.12,Unlimited,SBD,M,
Boys,82.1,20,Daniel Tirado,San Benito,79.74,242.67,190.51,238.14,671.32,Unlimited,SBD,M,
Boys,82.1,21,Miguel Nunez,Elgin,79.29,263.08,163.29,238.14,664.51,Unlimited,SBD,M,
Boys,82.1,22,Jordan Stafford,Victoria East,78.56,254.01,158.76,249.48,662.24,Unlimited,SBD,M,
Boys,82.1,23,Bruce Hendrick,Bryan Rudder,80.29,242.67,199.58,219.99,662.24,Unlimited,SBD,M,
Boys,82.1,24,Jack Pollard,Wolfforth Frenship,81.1,249.48,151.95,260.82,662.24,Unlimited,SBD,M,
Boys,82.1,25,Kaden Nguyen,Pflugerville Connally,81.1,244.94,165.56,249.48,659.98,Unlimited,SBD,M,
Boys,82.1,26,Rylan Brenish,Granbury,81.28,249.48,165.56,242.67,657.71,Unlimited,SBD,M,
Boys,82.1,27,Samit Jackson,Joshua,80.06,238.14,167.83,249.48,655.44,Unlimited,SBD,M,
Boys,82.1,28,Harvil Fogwe,Mansfield Lake Ridge,80.65,249.48,147.42,249.48,646.37,Unlimited,SBD,M,
Boys,82.1,29,Jeremiah Gonzales,Plainview,79.2,263.08,142.88,238.14,644.1,Unlimited,SBD,M,
Boys,82.1,30,Braden McEldowney,Conroe Grand Oaks,79.56,249.48,172.37,219.99,641.83,Unlimited,SBD,M,
Boys,82.1,31,Luis Rodriguez,Del Rio,80.1,224.53,167.83,249.48,641.83,Unlimited,SBD,M,
Boys,82.1,32,Jose Rosas,Fort Worth Polytechnic,80.74,258.55,142.88,240.4,641.83,Unlimited,SBD,M,
Boys,82.1,33,Tyler Ulrich,Azle,81.65,231.33,165.56,244.94,641.83,Unlimited,SBD,M,
Boys,82.1,34,Saheed Durodoye,Justin Northwest,80.1,251.74,154.22,233.6,639.57,Unlimited,SBD,M,
Boys,82.1,35,Christian Perez,Keller Central,79.02,192.78,197.31,247.21,637.3,Unlimited,SBD,M,
Boys,82.1,36,Sergio Ramirez,Corsicana,80.74,249.48,142.88,240.4,632.76,Unlimited,SBD,M,
Boys,82.1,37,Kaleb Rothman,Keller Central,81.15,260.82,165.56,206.38,632.76,Unlimited,SBD,M,
Boys,82.1,38,Will Ngyuen,Princeton,81.19,224.53,188.24,219.99,632.76,Unlimited,SBD,M,
Boys,82.1,39,Johnaton Haywood,Katy Mayde Creek,79.83,233.6,154.22,242.67,630.49,Unlimited,SBD,M,
Boys,82.1,40,Cash Moore,Azle,81.74,231.33,181.44,217.72,630.49,Unlimited,SBD,M,
Boys,82.1,41,Evan Neilson,Liberty Hill,79.2,258.55,142.88,226.8,628.23,Unlimited,SBD,M,
Boys,82.1,42,John Rigsby,Brenham,81.37,222.26,170.1,231.33,623.69,Unlimited,SBD,M,
Boys,82.1,43,Colby Ray Short,Sherman,79.29,238.14,167.83,181.44,587.4,Unlimited,SBD,M,
Boys,82.1,44,Luis Huerta,Keller,79.83,183.7,163.29,226.8,573.79,Unlimited,SBD,M,
Boys,82.1,45,Areion Coln,Richardson,78.47,188.24,215.46,61.23,464.93,Unlimited,SBD,M,
Boys,82.1,NS,Kayden Leal,Victoria West,,,,,,Unlimited,SBD,M,
Boys,82.1,NS,Angel Briseno,Brownsville Veterans Memorial,,,,,,Unlimited,SBD,M,
Boys,82.1,DQ,Jayden Herrera,Ennis,81.1,,,,,Unlimited,SBD,M,
Boys,82.1,DQ,Jacob Gober,Willis,81.37,288.03,197.31,,,Unlimited,SBD,M,
Boys,82.1,DQ,Jackson Carpenter,Abilene Wylie,81.56,238.14,,,,Unlimited,SBD,M,
Boys,82.1,DQ,Danny Garcia,Abilene Wylie,81.24,249.48,,,,Unlimited,SBD,M,
Boys,82.1,DQ,Omar Palacios,Elgin,80.38,242.67,,,,Unlimited,SBD,M,
Boys,82.1,DQ,Nate Morris,Conroe,80.56,,,,,Unlimited,SBD,M,
Boys,89.81,1,Demitri Ayala,McAllen,87.45,333.39,231.33,342.46,907.18,Unlimited,SBD,M,
Boys,89.81,2,Aaron Gomez,Argyle,88.9,297.1,265.35,267.62,830.07,Unlimited,SBD,M,
Boys,89.81,3,Garrett Loar,Willis,88.27,317.51,190.51,276.69,784.71,Unlimited,SBD,M,
Boys,89.81,4,Noah Neibrandt,Victoria West,87.45,301.64,192.78,283.5,777.91,Unlimited,SBD,M,
Boys,89.81,5,Trace Emola,Bryan Rudder,88,299.37,213.19,254.01,766.57,Unlimited,SBD,M,
Boys,89.81,6,Melanio Perez,Elgin,86.64,306.17,183.7,269.89,759.77,Unlimited,SBD,M,
Boys,89.81,7,Malik Cotton,College Station,86.82,306.17,181.44,258.55,746.16,Unlimited,SBD,M,
Boys,89.81,8,Rafael Aguirre,Edinburg North,85.82,283.5,183.7,274.42,741.62,Unlimited,SBD,M,
Boys,89.81,9,Bryan Redd,Huntsville,88.36,267.62,226.8,244.94,739.36,Unlimited,SBD,M,
Boys,89.81,10,Devon Jeffries,Denison,88.27,301.64,183.7,244.94,730.28,Unlimited,SBD,M,
Boys,89.81,11,Sterling Tomlin,Harlingen,88.18,272.16,197.31,233.6,703.07,Unlimited,SBD,M,
Boys,89.81,12,Zach Lunn,Conroe Grand Oaks,88.18,276.69,167.83,254.01,698.53,Unlimited,SBD,M,
Boys,89.81,13,Adrian Lizcano,Harlingen,89.72,274.42,192.78,231.33,698.53,Unlimited,SBD,M,
Boys,89.81,14,Hudson Windsor,Pearland Dawson,88.81,278.96,163.29,238.14,680.39,Unlimited,SBD,M,
Boys,89.81,15,Gabe DeKok,Keller,88.95,258.55,183.7,238.14,680.39,Unlimited,SBD,M,
Boys,89.81,16,Fabian Garza,Pasadena Memorial,87.27,278.96,163.29,235.87,678.12,Unlimited,SBD,M,
Boys,89.81,17,Seth Hernandez,Edinburg,87.09,260.82,165.56,244.94,671.32,Unlimited,SBD,M,
Boys,89.81,18,Daniel De La Cruz,McAllen Memorial,87,272.16,158.76,238.14,669.05,Unlimited,SBD,M,
Boys,89.81,19,Luke Susman,Lucas Lovejoy,87.72,256.28,183.7,226.8,666.78,Unlimited,SBD,M,
Boys,89.81,20,Davin Jones,Granbury,83.73,258.55,167.83,238.14,664.51,Unlimited,SBD,M,
Boys,89.81,21,Robbie Martinez,Carrollton Turner,86.91,251.74,158.76,254.01,664.51,Unlimited,SBD,M,
Boys,89.81,22,Ian Pippins-Moon,Magnolia,87.63,281.23,142.88,240.4,664.51,Unlimited,SBD,M,
Boys,89.81,23,Aiden McGinnis,Bishop Lynch,88.27,238.14,176.9,249.48,664.51,Unlimited,SBD,M,
Boys,89.81,24,Daniel Tyutyunnik,Princeton,89.36,249.48,149.69,265.35,664.51,Unlimited,SBD,M,
Boys,89.81,25,Levi Fontenot,Crosby,88.99,260.82,136.08,260.82,657.71,Unlimited,SBD,M,
Boys,89.81,26,Tait Knudsen,Conroe Woodlands College Park,86.27,267.62,156.49,231.33,655.44,Unlimited,SBD,M,
Boys,89.81,27,Logan Morris,Pflugerville Hendrickson,88.09,267.62,181.44,206.38,655.44,Unlimited,SBD,M,
Boys,89.81,28,Domingo Sanchez,Del Rio,87.36,274.42,165.56,213.19,653.17,Unlimited,SBD,M,
Boys,89.81,29,John Paul Akanga,Forney,87.72,249.48,183.7,215.46,648.64,Unlimited,SBD,M,
Boys,89.81,30,Efren Figueroa,Alvin Shadow Creek,88.36,260.82,142.88,242.67,646.37,Unlimited,SBD,M,
Boys,89.81,31,Francisco Tirado,Magnolia,88.63,260.82,158.76,226.8,646.37,Unlimited,SBD,M,
Boys,89.81,32,Jaydus Bell,Pflugerville Connally,86.36,238.14,154.22,242.67,635.03,Unlimited,SBD,M,
Boys,89.81,33,Austin Shackleford,Crandall,88.9,231.33,154.22,242.67,628.23,Unlimited,SBD,M,
Boys,89.81,34,Wyatt Tanksley,Tyler Legacy,87.91,249.48,176.9,199.58,625.96,Unlimited,SBD,M,
Boys,89.81,35,Ben Susman,Lucas Lovejoy,86.45,215.46,165.56,215.46,596.47,Unlimited,SBD,M,
Boys,89.81,NS,German Del Toro,Terrell,,,,,,Unlimited,SBD,M,
Boys,89.81,NS,Billy Shearer,Dallas Highland Park,,,,,,Unlimited,SBD,M,
Boys,89.81,DQ,Braeden White,Dayton,87.82,,,,,Unlimited,SBD,M,
Boys,89.81,DQ,Francisco Marichalar,Edinburg Economedes,88.9,,,,,Unlimited,SBD,M,
Boys,89.81,DQ,Joe Gionfriddo,Sherman,87.36,219.99,,,,Unlimited,SBD,M,
Boys,99.79,1,Jaileel Ross,Lubbock Cooper,98.34,337.93,201.85,362.87,902.65,Unlimited,SBD,M,
Boys,99.79,2,Evan Owen,Corsicana,98.88,317.51,204.12,254.01,775.64,Unlimited,SBD,M,
Boys,99.79,3,Joseph Rolen,Waxahachie,99.06,294.84,176.9,299.37,771.11,Unlimited,SBD,M,
Boys,99.79,4,Humberto Leal,Donna,96.89,322.05,181.44,247.21,750.7,Unlimited,SBD,M,
Boys,99.79,5,Pedro Ochoa,Brownsville Hanna,94.35,306.17,192.78,247.21,746.16,Unlimited,SBD,M,
Boys,99.79,6,Jacob Ortiz,Harlingen,99.52,258.55,229.06,258.55,746.16,Unlimited,SBD,M,
Boys,99.79,7,Tomas Longoria,Harlingen South,95.16,281.23,213.19,244.94,739.36,Unlimited,SBD,M,
Boys,99.79,8,Justin Murphy,Richardson,99.06,260.82,199.58,272.16,732.55,Unlimited,SBD,M,
Boys,99.79,9,Caleb Rodriguez,Del Rio,98.7,281.23,201.85,244.94,728.02,Unlimited,SBD,M,
Boys,99.79,10,Kaeden Cavnar,Conroe The Woodlands,95.8,265.35,195.04,265.35,725.75,Unlimited,SBD,M,
Boys,99.79,11,Wyatt Olive,Midland Legacy,98.97,281.23,195.04,240.4,716.68,Unlimited,SBD,M,
Boys,99.79,12,Jesse Mauricio,Ennis,98.97,285.76,206.38,215.46,707.6,Unlimited,SBD,M,
Boys,99.79,13,Jay Reroma,Dickinson,98.93,272.16,199.58,222.26,694,Unlimited,SBD,M,
Boys,99.79,14,Jacob Baez,Alvin,98.52,265.35,181.44,240.4,687.19,Unlimited,SBD,M,
Boys,99.79,15,Felipe Juarez,Hallsville,96.07,256.28,156.49,272.16,684.92,Unlimited,SBD,M,
Boys,99.79,16,Case Moore,Azle,98.16,265.35,192.78,226.8,684.92,Unlimited,SBD,M,
Boys,99.79,17,Jackson Patchell,Conroe The Woodlands,95.62,244.94,156.49,281.23,682.66,Unlimited,SBD,M,
Boys,99.79,18,Jose Rosas,Brownsville Pace,98.97,260.82,199.58,222.26,682.66,Unlimited,SBD,M,
Boys,99.79,19,Gavin Prince,Lucas Lovejoy,93.08,242.67,195.04,242.67,680.39,Unlimited,SBD,M,
Boys,99.79,20,Tysan Breaux,Pflugerville Hendrickson,98.25,263.08,165.56,251.74,680.39,Unlimited,SBD,M,
Boys,99.79,21,Michael Acosta,Buda Johnson,96.52,276.69,179.17,222.26,678.12,Unlimited,SBD,M,
Boys,99.79,22,Juan Rodriguez,Edinburg Vela,94.62,265.35,183.7,226.8,675.85,Unlimited,SBD,M,
Boys,99.79,23,Robert French,Burleson Centennial,98.79,256.28,183.7,235.87,675.85,Unlimited,SBD,M,
Boys,99.79,24,Luis Castillo,Georgetown East View,96.07,258.55,163.29,247.21,669.05,Unlimited,SBD,M,
Boys,99.79,25,Joseph Incardona,Bryan,98.88,267.62,154.22,244.94,666.78,Unlimited,SBD,M,
Boys,99.79,26,Liam Ponte,College Station,98.25,260.82,156.49,244.94,662.24,Unlimited,SBD,M,
Boys,99.79,27,Rocky Crooks,Killeen Harker Heights,95.53,242.67,174.63,242.67,659.98,Unlimited,SBD,M,
Boys,99.79,28,Garvey Frederic,Coppell,97.7,254.01,165.56,240.4,659.98,Unlimited,SBD,M,
Boys,99.79,29,Sutton Goss,Magnolia,94.08,242.67,156.49,258.55,657.71,Unlimited,SBD,M,
Boys,99.79,30,Abram Ramirez,Sherman,95.62,244.94,170.1,238.14,653.17,Unlimited,SBD,M,
Boys,99.79,31,Devon Burtness,Mount Pleasant,96.34,260.82,174.63,215.46,650.91,Unlimited,SBD,M,
Boys,99.79,32,Ty Smith,Lucas Lovejoy,96.98,233.6,197.31,219.99,650.91,Unlimited,SBD,M,
Boys,99.79,33,Roy Ramirez,Clute Brazoswood,98.79,240.4,156.49,240.4,637.3,Unlimited,SBD,M,
Boys,99.79,34,Alex Brace,Longview Pine Tree,95.89,238.14,151.95,242.67,632.76,Unlimited,SBD,M,
Boys,99.79,35,Roderick Hudson,Mesquite Horn,98.34,242.67,154.22,233.6,630.49,Unlimited,SBD,M,
Boys,99.79,DQ,Anthony Gonzalez,Edinburg Economedes,97.16,,,,,Unlimited,SBD,M,
Boys,99.79,DQ,Pablo Solis,Rio Grande City,94.08,,,,,Unlimited,SBD,M,
Boys,99.79,DQ,Isaac Ramirez,San Benito,95.07,272.16,183.7,,,Unlimited,SBD,M,
Boys,99.79,DQ,Bryce Leal,Santa Fe,93.26,,,,,Unlimited,SBD,M,
Boys,99.79,DQ,Austen Hernandez,Willis,97.07,,,,,Unlimited,SBD,M,
Boys,99.79,DQ,Nathan Villegas,Castroville Medina Valley,90.63,,,,,Unlimited,SBD,M,
Boys,99.79,DQ,Brandon Barnett,Castroville Medina Valley,98.25,,,,,Unlimited,SBD,M,
Boys,99.79,DQ,Cristian Gonzales,Houston Spring Woods,97.7,,,,,Unlimited,SBD,M,
Boys,109.77,1,Gilbert Lerma,Harlingen South,105.05,317.51,215.46,278.96,811.93,Unlimited,SBD,M,
Boys,109.77,2,Bryten Fields,Ennis,103.33,310.71,222.26,276.69,809.66,Unlimited,SBD,M,
Boys,109.77,3,Omar Guerrero,Donna North,106.68,308.44,231.33,256.28,796.05,Unlimited,SBD,M,
Boys,109.77,4,Juan Acosta,Brownsville Hanna,106.96,317.51,217.72,254.01,789.25,Unlimited,SBD,M,
Boys,109.77,5,Tyler Willis,Katy,108.68,288.03,210.92,285.76,784.71,Unlimited,SBD,M,
Boys,109.77,6,Ariel Segura,Edinburg,108.05,292.57,215.46,274.42,782.45,Unlimited,SBD,M,
Boys,109.77,7,Nick Perez,Conroe Oak Ridge,107.5,324.32,206.38,242.67,773.37,Unlimited,SBD,M,
Boys,109.77,8,Aydin Torres,Edinburg North,108.41,310.71,226.8,231.33,768.84,Unlimited,SBD,M,
Boys,109.77,9,Reynaldo Loredo,Wolfforth Frenship,109.04,288.03,226.8,251.74,766.57,Unlimited,SBD,M,
Boys,109.77,10,Harper Hall,College Station,105.96,308.44,181.44,258.55,748.43,Unlimited,SBD,M,
Boys,109.77,11,Nathaniel Navarro,Edinburg North,105.23,288.03,199.58,254.01,741.62,Unlimited,SBD,M,
Boys,109.77,12,Alexander Rivera,San Antonio Southwest Legacy,108.41,294.84,183.7,263.08,741.62,Unlimited,SBD,M,
Boys,109.77,13,Jose Gonzalez,Mount Pleasant,103.6,283.5,210.92,240.4,734.82,Unlimited,SBD,M,
Boys,109.77,14,Carson Martin,Abilene Wylie,106.64,272.16,185.97,272.16,730.28,Unlimited,SBD,M,
Boys,109.77,15,Marcus Franklin,Whitehouse,108.86,294.84,183.7,251.74,730.28,Unlimited,SBD,M,
Boys,109.77,16,Julian Lopez,PSJA Memorial,105.32,294.84,183.7,249.48,728.02,Unlimited,SBD,M,
Boys,109.77,17,Reno Villanueva,Harlingen South,103.06,281.23,195.04,249.48,725.75,Unlimited,SBD,M,
Boys,109.77,18,Lance Willingham,Dayton,104.51,260.82,188.24,276.69,725.75,Unlimited,SBD,M,
Boys,109.77,19,Adolfo Cruz,Dickinson,106.96,278.96,204.12,242.67,725.75,Unlimited,SBD,M,
Boys,109.77,20,Evis Bobey Munoz,Midland Legacy,102.87,288.03,181.44,249.48,718.94,Unlimited,SBD,M,
Boys,109.77,21,Maxx Vazquez,Dickinson,109,281.23,217.72,204.12,703.07,Unlimited,SBD,M,
Boys,109.77,22,Ethan Salas,Abilene Wylie,107.59,274.42,185.97,233.6,694,Unlimited,SBD,M,
Boys,109.77,23,Preslee Rodarte,Waxahachie,104.14,249.48,199.58,240.4,689.46,Unlimited,SBD,M,
Boys,109.77,24,David Carlisle,Marshall,106.96,285.76,161.03,242.67,689.46,Unlimited,SBD,M,
Boys,109.77,25,Enrique Sanchez,Granbury,108.41,249.48,192.78,247.21,689.46,Unlimited,SBD,M,
Boys,109.77,26,Andre McDaniel,Alvin Shadow Creek,103.33,263.08,163.29,258.55,684.92,Unlimited,SBD,M,
Boys,109.77,27,Marcus Serda,San Antonio East Central,106.23,244.94,206.38,231.33,682.66,Unlimited,SBD,M,
Boys,109.77,28,Erik Guzman,Longview Pine Tree,107.5,274.42,183.7,224.53,682.66,Unlimited,SBD,M,
Boys,109.77,29,Josh Turner,Denison,100.7,265.35,190.51,215.46,671.32,Unlimited,SBD,M,
Boys,109.77,30,Mikie Thompson,Conroe Oak Ridge,107.41,278.96,151.95,240.4,671.32,Unlimited,SBD,M,
Boys,109.77,31,Tristan Rodelo,Carrollton Turner,107.77,272.16,147.42,249.48,669.05,Unlimited,SBD,M,
Boys,109.77,32,John Hurt,Argyle,106.78,256.28,172.37,235.87,664.51,Unlimited,SBD,M,
Boys,109.77,33,Matthew Grant,Waxahachie,105.96,249.48,204.12,195.04,648.64,Unlimited,SBD,M,
Boys,109.77,34,Preston Armstrong,Longview Pine Tree,104.96,242.67,183.7,208.65,635.03,Unlimited,SBD,M,
Boys,109.77,DQ,Weston Bonneau,Gregory-Portland,107.14,,,,,Unlimited,SBD,M,
Boys,109.77,DQ,Gustavo Escandon,McAllen Memorial,101.42,,,,,Unlimited,SBD,M,
Boys,109.77,DQ,Amari Tatum,Nacogdoches,107.68,,,,,Unlimited,SBD,M,
Boys,109.77,DQ,Tristan Dennie,San Antonio Southwest,106.14,,,,,Unlimited,SBD,M,
Boys,109.77,DQ,Ezrah Machuca,Buda Johnson,108.23,,,,,Unlimited,SBD,M,
Boys,109.77,DQ,George Avalos,Del Rio,106.5,,,,,Unlimited,SBD,M,
Boys,109.77,DQ,Noe Alegria,Donna,108.05,,,,,Unlimited,SBD,M,
Boys,109.77,DQ,Luke Cannon,Conroe,102.42,,,,,Unlimited,SBD,M,
Boys,124.74,1,Andrew Rodgers,Nacogdoches,121.11,306.17,249.48,288.03,843.68,Unlimited,SBD,M,
Boys,124.74,2,Jason Escobar,McAllen Memorial,122.56,315.25,247.21,263.08,825.54,Unlimited,SBD,M,
Boys,124.74,3,Anthony de Leon,Harlingen,119.84,317.51,226.8,242.67,786.98,Unlimited,SBD,M,
Boys,124.74,4,Hunter McGary,Bryan Rudder,120.84,308.44,213.19,251.74,773.37,Unlimited,SBD,M,
Boys,124.74,5,Kayvin De La Rosa,Los Fresnos,121.02,308.44,188.24,276.69,773.37,Unlimited,SBD,M,
Boys,124.74,6,Caleb Fletcher,Willis,121.02,303.91,226.8,240.4,771.11,Unlimited,SBD,M,
Boys,124.74,7,Chuy Ramirez,Cleburne,117.39,290.3,208.65,267.62,766.57,Unlimited,SBD,M,
Boys,124.74,8,Cooper Duce,Denison,120.02,281.23,217.72,260.82,759.77,Unlimited,SBD,M,
Boys,124.74,9,Juan Meza,Donna,123.47,294.84,204.12,247.21,746.16,Unlimited,SBD,M,
Boys,124.74,10,Caleb Gomez,Buda Johnson,123.38,297.1,181.44,265.35,743.89,Unlimited,SBD,M,
Boys,124.74,11,Jake Brown,Melissa,119.84,299.37,192.78,249.48,741.62,Unlimited,SBD,M,
Boys,124.74,12,Cooper Hydock,Montgomery,116.75,299.37,188.24,247.21,734.82,Unlimited,SBD,M,
Boys,124.74,13,Warner Erwin,Buda Johnson,122.02,272.16,217.72,244.94,734.82,Unlimited,SBD,M,
Boys,124.74,14,Christian Santiago,New Caney,122.2,283.5,156.49,292.57,732.55,Unlimited,SBD,M,
Boys,124.74,15,Jaden Perez,San Antonio Antonian College Preparatory H.S.,121.93,274.42,201.85,247.21,723.48,Unlimited,SBD,M,
Boys,124.74,16,Vincent Fedorick,San Antonio Southwest,112.49,299.37,170.1,249.48,718.94,Unlimited,SBD,M,
Boys,124.74,17,William Rolen,Waxahachie,121.2,272.16,201.85,244.94,718.94,Unlimited,SBD,M,
Boys,124.74,18,Kaleb Loredo,Brownsville Pace,122.29,278.96,183.7,256.28,718.94,Unlimited,SBD,M,
Boys,124.74,19,Jose Escojido,PSJA Southwest,123.92,285.76,206.38,226.8,718.94,Unlimited,SBD,M,
Boys,124.74,20,Ezra Echavarria,Harlingen South,114.94,281.23,192.78,242.67,716.68,Unlimited,SBD,M,
Boys,124.74,21,Noah Newman,Joshua,122.74,272.16,192.78,244.94,709.87,Unlimited,SBD,M,
Boys,124.74,22,Tanner Crumpton,Corsicana,120.66,254.01,226.8,222.26,703.07,Unlimited,SBD,M,
Boys,124.74,23,Rion Childers,Copperas Cove,118.66,283.5,181.44,231.33,696.26,Unlimited,SBD,M,
Boys,124.74,24,Larry Brooks,Manvel,115.03,297.1,147.42,249.48,694,Unlimited,SBD,M,
Boys,124.74,DQ,Carlos Rodriguez,McAllen Memorial,122.11,,,,,Unlimited,SBD,M,
Boys,124.74,DQ,Dc Thompson,North Crowley,114.58,,,,,Unlimited,SBD,M,
Boys,124.74,DQ,Marek Montgomery,Montgomery,111.22,,,,,Unlimited,SBD,M,
Boys,124.74,DQ,Albert Gonzales,Houston Northbrook,121.56,,,,,Unlimited,SBD,M,
Boys,124.74,DQ,Angel Rios,Laredo United South,118.39,,,,,Unlimited,SBD,M,
Boys,124.74,DQ,Peyton Robinson,Conroe Woodlands College Park,118.75,,,,,Unlimited,SBD,M,
Boys,124.74,DQ,Gabriel Benitez,Comal Canyon,111.04,,,,,Unlimited,SBD,M,
Boys,124.74,DQ,Brandon Mathis,Conroe,116.39,,,,,Unlimited,SBD,M,
Boys,124.74,DQ,Arturo Gonzalez,Edcouch-Elsa,119.66,,,,,Unlimited,SBD,M,
Boys,124.74,DQ,Kutter Vlasin,Forney,124.74,,,,,Unlimited,SBD,M,
Boys,124.74,DQ,Jadaelyn Jackson,Tyler Legacy,118.93,,,,,Unlimited,SBD,M,
Boys,124.74,NS,Kaden Schirck,Santa Fe,,,,,,Unlimited,SBD,M,
Boys,124.74,DQ,Emilio Villa,Dayton,117.75,240.4,195.04,,,Unlimited,SBD,M,
Boys,124.74,DQ,Darrion Mitchell,Midland,113.22,,,,,Unlimited,SBD,M,
Boys,124.74,DQ,Chad Tripp,Midland Legacy,124.01,,,,,Unlimited,SBD,M,
Boys,139.71,1,Bradyn Smith,Midlothian,136.8,340.19,294.84,256.28,891.31,Unlimited,SBD,M,
Boys,139.71,2,Cam Vann,Abilene Wylie,135.9,353.8,217.72,285.76,857.29,Unlimited,SBD,M,
Boys,139.71,3,Luke Rodriguez,Forney,134.26,347,242.67,265.35,855.02,Unlimited,SBD,M,
Boys,139.71,4,Gus De La Cerda,Donna,132,324.32,204.12,260.82,789.25,Unlimited,SBD,M,
Boys,139.71,5,KeShawn Jones,League City Clear Creek,134.17,326.59,208.65,244.94,780.18,Unlimited,SBD,M,
Boys,139.71,6,Joaquinn Fuentes,Del Rio,129.27,326.59,183.7,265.35,775.64,Unlimited,SBD,M,
Boys,139.71,7,Nathan Orrick,Denison,136.35,272.16,231.33,272.16,775.64,Unlimited,SBD,M,
Boys,139.71,8,Isaiah Loya,Donna North,137.17,331.12,217.72,226.8,775.64,Unlimited,SBD,M,
Boys,139.71,9,Rosario Perez,Edcouch-Elsa,127.82,317.51,208.65,235.87,762.04,Unlimited,SBD,M,
Boys,139.71,10,Rema Nwosu,Conroe Woodlands College Park,136.53,306.17,190.51,260.82,757.5,Unlimited,SBD,M,
Boys,139.71,11,Matthew Reyes,Weslaco,134.08,306.17,199.58,249.48,755.23,Unlimited,SBD,M,
Boys,139.71,12,Anthony Lozano,Texas City,130.63,317.51,185.97,242.67,746.16,Unlimited,SBD,M,
Boys,139.71,13,Rene Gomez,McAllen Memorial,131.09,317.51,201.85,226.8,746.16,Unlimited,SBD,M,
Boys,139.71,14,Jaeden Fraire,Victoria West,136.8,317.51,195.04,229.06,741.62,Unlimited,SBD,M,
Boys,139.71,15,De'Braylon McDonald,Whitehouse,139.71,294.84,190.51,256.28,741.62,Unlimited,SBD,M,
Boys,139.71,16,Aiden Kaplan,Montgomery Lake Creek,125.28,285.76,195.04,238.14,718.94,Unlimited,SBD,M,
Boys,139.71,17,Marc Pedraza,Pearland,132.27,299.37,185.97,231.33,716.68,Unlimited,SBD,M,
Boys,139.71,DQ,Christopher Morales,Rio Grande City,136.08,,,,,Unlimited,SBD,M,
Boys,139.71,DQ,Kyle Suggs,Alvin,126.19,,,,,Unlimited,SBD,M,
Boys,139.71,DQ,Hugo Lopez,Forney,132.81,,,,,Unlimited,SBD,M,
Boys,139.71,DQ,Ezequiel Ozuna,McAllen Memorial,137.08,,,,,Unlimited,SBD,M,
Boys,139.71,DQ,Anthony Johnson III,Harlingen,137.44,,,,,Unlimited,SBD,M,
Boys,139.71,DQ,Lucas Barrientes,Midland Legacy,126.19,,,,,Unlimited,SBD,M,
Boys,139.71,DQ,Cooper Case,Round Rock Westwood,137.53,,,,,Unlimited,SBD,M,
Boys,139.71,DQ,Tristan Gable,Northwest Eaton,126.19,,,,,Unlimited,SBD,M,
Boys,139.71+,1,Jose Lugo,Victoria East,149.69,371.95,285.76,254.01,911.72,Unlimited,SBD,M,
Boys,139.71+,2,Martin Maldonado,Weslaco,181.71,290.3,272.16,254.01,816.47,Unlimited,SBD,M,
Boys,139.71+,3,Keegan Garcia,San Antonio East Central,147.15,294.84,201.85,294.84,791.52,Unlimited,SBD,M,
Boys,139.71+,4,Owen Hollenbeck,Melissa,157.85,317.51,231.33,242.67,791.52,Unlimited,SBD,M,
Boys,139.71+,5,Kayden Bryan,Abilene Cooper,146.01,290.3,213.19,267.62,771.11,Unlimited,SBD,M,
Boys,139.71+,6,Adam Walden,Lake Belton,157.67,308.44,208.65,254.01,771.11,Unlimited,SBD,M,
Boys,139.71+,7,Endrei Sauls,Temple,153.59,306.17,183.7,272.16,762.04,Unlimited,SBD,M,
Boys,139.71+,8,Zion Williams,Lufkin,148.05,306.17,204.12,242.67,752.96,Unlimited,SBD,M,
Boys,139.71+,9,Aden Boutte,Channelview,157.03,294.84,190.51,260.82,746.16,Unlimited,SBD,M,
Boys,139.71+,10,Xzaviah Milton,Saginaw,153.22,312.98,217.72,206.38,737.09,Unlimited,SBD,M,
Boys,139.71+,DQ,Jordan Nichols,Lufkin,151.5,,,,,Unlimited,SBD,M,
Boys,139.71+,DQ,Levi Zaunbrecher,Conroe The Woodlands,159.03,290.3,167.83,,,Unlimited,SBD,M,
