Division,WeightClassKg,Place,Name,Team,BodyweightKg,Best3SquatKg,Best3BenchKg,Best3DeadliftKg,TotalKg,Equipment,Event,Sex
Boys,51.71,1,Calvin Ford,Burleson,51.71,158.76,81.65,170.1,410.5,Single-ply,SBD,M
Boys,51.71,2,Dominique John,Mansfield Summit,49.9,136.08,72.57,158.76,367.41,Single-ply,SBD,M
Boys,55.79,3,Santos Rodriguez,Fort Worth North Side,51.89,124.74,83.91,145.15,353.8,Single-ply,SBD,M
Boys,51.71,4,Shyrod Anderson,Cleburne,51.71,113.4,47.63,140.61,301.64,Single-ply,SBD,M
Boys,51.71,5,Jared Hamilton,Cedar Hill,50.71,86.18,38.56,122.47,247.21,Single-ply,SBD,M
Boys,51.71,DQ,Michael Dixon,Mansfield,47.63,131.54,,,,Single-ply,SBD,M
Boys,55.79,1,Colton Bedford,Burleson,54.61,154.22,113.4,151.95,419.57,Single-ply,SBD,M
Boys,55.79,2,Austin Wooldridge,Mansfield Legacy,55.61,133.81,99.79,136.08,369.68,Single-ply,SBD,M
Boys,59.87,3,Michael Lester,Mansfield Summit,55.97,140.61,68.04,142.88,351.53,Single-ply,SBD,M
Boys,59.87,4,Zachary Rose,Cedar Hill,55.97,129.27,58.97,140.61,328.85,Single-ply,SBD,M
Boys,55.79,5,Christopher Hernandez,Duncanville,54.52,104.33,72.57,142.88,319.78,Single-ply,SBD,M
Boys,55.79,6,Devante Hill,Fort Worth Arlington Heights,52.62,111.13,68.04,138.35,317.51,Single-ply,SBD,M
Boys,55.79,7,Aaron George,Everman,52.34,113.4,45.36,113.4,272.16,Single-ply,SBD,M
Boys,55.79,DQ,Jeston England,Mansfield,53.16,136.08,83.91,,,Single-ply,SBD,M
Boys,59.87,1,Clarington Lightfoot,Everman,58.24,197.31,102.06,188.24,487.61,Single-ply,SBD,M
Boys,59.87,2,Vincent Sellers,Midlothian,59.06,185.97,104.33,181.44,471.74,Single-ply,SBD,M
Boys,59.87,3,Billy Neal,Crowley,58.51,192.78,88.45,176.9,458.13,Single-ply,SBD,M
Boys,59.87,4,Devin Walker,Everman,59.33,183.7,86.18,158.76,428.64,Single-ply,SBD,M
Boys,59.87,5,David Brown #13,Mansfield,58.69,167.83,79.38,163.29,410.5,Single-ply,SBD,M
Boys,67.13,6,Chase Porter,Burleson,60.1,136.08,83.91,158.76,378.75,Single-ply,SBD,M
Boys,59.87,7,Alex Olmos,Everman,57.79,138.35,99.79,136.08,374.21,Single-ply,SBD,M
Boys,59.87,8,Kefrin Kelly,Everman,59.87,165.56,70.31,136.08,371.95,Single-ply,SBD,M
Boys,59.87,9,Jake Cook,Mansfield,59.06,147.42,86.18,136.08,369.68,Single-ply,SBD,M
Boys,59.87,10,Logan Nunn,Cleburne,58.79,108.86,70.31,136.08,315.25,Single-ply,SBD,M
Boys,59.87,11,Joey Powell,Cedar Hill,58.79,104.33,63.5,138.35,306.17,Single-ply,SBD,M
Boys,59.87,12,Matt Burgess,Fort Worth Arlington Heights,59.78,117.93,56.7,129.27,303.91,Single-ply,SBD,M
Boys,59.87,13,Collin Hofstad,Midlothian,59.42,108.86,65.77,115.67,290.3,Single-ply,SBD,M
Boys,59.87,DQ,Shon Parker,Dallas Seagoville,58.69,156.49,,,,Single-ply,SBD,M
Boys,67.13,1,Nolan Salas,Crowley,64.14,204.12,106.59,204.12,514.83,Single-ply,SBD,M
Boys,67.13,2,Greg Simpson,Cleburne,64.86,199.58,113.4,183.7,496.68,Single-ply,SBD,M
Boys,74.84,3,Thomas Base,Crowley,67.31,181.44,106.59,195.04,483.08,Single-ply,SBD,M
Boys,67.13,4,Jared Clark,Burleson,66.41,176.9,92.99,174.63,444.52,Single-ply,SBD,M
Boys,67.13,5,Juan Corrales,Castleberry,65.77,170.1,97.52,174.63,442.25,Single-ply,SBD,M
Boys,67.13,6,Dakota Kundert,Burleson,66.32,158.76,113.4,167.83,439.98,Single-ply,SBD,M
Boys,67.13,7,Malcolm Lester,Carrollton Creekview,63.41,185.97,79.38,167.83,433.18,Single-ply,SBD,M
Boys,67.13,8,Joseph Og,Cedar Hill,65.32,158.76,88.45,174.63,421.84,Single-ply,SBD,M
Boys,67.13,9,Dustin Seeton,Midlothian,66.68,151.95,88.45,170.1,410.5,Single-ply,SBD,M
Boys,67.13,10,Darian Glenn,Mansfield,65.5,145.15,95.25,165.56,405.97,Single-ply,SBD,M
Boys,74.84,11,Micheal Avila,Fort Worth Polytechnic,67.31,142.88,86.18,174.63,403.7,Single-ply,SBD,M
Boys,67.13,12,Aaron Howell,Cleburne,63.68,142.88,95.25,161.03,399.16,Single-ply,SBD,M
Boys,67.13,13,Billy Light,Burleson,61.78,140.61,90.72,163.29,394.63,Single-ply,SBD,M
Boys,67.13,14,Larron Black,Mansfield Summit,60.69,133.81,74.84,179.17,387.82,Single-ply,SBD,M
Boys,67.13,15,Michael Hernandez,Fort Worth North Side,63.23,136.08,81.65,158.76,376.48,Single-ply,SBD,M
Boys,67.13,16,Matt Jones #7,Mansfield,66.95,140.61,90.72,142.88,374.21,Single-ply,SBD,M
Boys,67.13,17,Zachery Romero,Castleberry,66.04,142.88,68.04,145.15,356.07,Single-ply,SBD,M
Boys,67.13,18,David Leal,Fort Worth Paschal,66.04,124.74,65.77,147.42,337.93,Single-ply,SBD,M
Boys,67.13,19,Blake Young,Fort Worth Arlington Heights,63.78,102.06,86.18,142.88,331.12,Single-ply,SBD,M
Boys,67.13,DQ,Brandon Marsh,Burleson,65.77,163.29,,,,Single-ply,SBD,M
Boys,67.13,DQ,Nick Robertson,Plano John Paul II,64.77,133.81,,,,Single-ply,SBD,M
Boys,74.84,DQ,Jack Peabody,Plano John Paul II,67.22,111.13,,,,Single-ply,SBD,M
Boys,74.84,1,Cameron Prater,Crowley,74.03,240.4,127.01,222.26,589.67,Single-ply,SBD,M
Boys,82.1,2,Jimmy Nguyen,Mansfield Summit,74.93,219.99,129.27,217.72,566.99,Single-ply,SBD,M
Boys,74.84,3,Nathan Nicholas,Burleson,74.03,206.38,147.42,192.78,546.58,Single-ply,SBD,M
Boys,74.84,4,Antonio Alba,Fort Worth North Side,70.76,201.85,102.06,217.72,521.63,Single-ply,SBD,M
Boys,74.84,5,Austin Mears,Cleburne,73.75,199.58,127.01,185.97,512.56,Single-ply,SBD,M
Boys,74.84,6,Angel Salassar,Fort Worth Polytechnic,73.84,174.63,120.2,208.65,503.49,Single-ply,SBD,M
Boys,74.84,7,Jordan Funches,Carrollton Creekview,72.85,210.92,99.79,190.51,501.22,Single-ply,SBD,M
Boys,74.84,8,Fred Griffin,Everman,74.12,204.12,106.59,185.97,496.68,Single-ply,SBD,M
Boys,82.1,9,Diego Rosales,Fort Worth Trimble Tech,75.02,195.04,111.13,188.24,494.42,Single-ply,SBD,M
Boys,74.84,10,Victor Gonzales,Midlothian,69.67,170.1,104.33,192.78,467.2,Single-ply,SBD,M
Boys,74.84,11,Chris Ikenyei,Mansfield Timberview,74.84,158.76,115.67,185.97,460.4,Single-ply,SBD,M
Boys,74.84,12,Cj Eubanks,Mansfield,73.75,170.1,106.59,172.37,449.06,Single-ply,SBD,M
Boys,74.84,13,Justin Seeton,Midlothian,73.39,167.83,90.72,188.24,446.79,Single-ply,SBD,M
Boys,74.84,14,Tremayne Green,Mansfield,72.21,156.49,115.67,167.83,439.98,Single-ply,SBD,M
Boys,74.84,15,Dustin Steward,Cleburne,73.3,165.56,102.06,161.03,428.64,Single-ply,SBD,M
Boys,74.84,16,Jesus Barela,Fort Worth North Side,72.12,158.76,86.18,174.63,419.57,Single-ply,SBD,M
Boys,74.84,17,Ben Hoyt,Fort Worth Paschal,73.21,149.69,92.99,172.37,415.04,Single-ply,SBD,M
Boys,74.84,18,Matt Neiman,Mansfield Legacy,71.03,163.29,92.99,149.69,405.97,Single-ply,SBD,M
Boys,74.84,19,Clark Bohrer,Mansfield Legacy,69.22,142.88,88.45,158.76,390.09,Single-ply,SBD,M
Boys,82.1,20,Jacob Androda,Fort Worth Arlington Heights,74.93,147.42,86.18,156.49,390.09,Single-ply,SBD,M
Boys,74.84,21,Essix Lightfoot,Everman,70.67,149.69,83.91,136.08,369.68,Single-ply,SBD,M
Boys,74.84,22,Ian Croschere,Fort Worth Paschal,74.57,111.13,61.23,156.49,328.85,Single-ply,SBD,M
Boys,82.1,1,Ruben Fletcher,Everman,76.11,238.14,113.4,244.94,596.47,Single-ply,SBD,M
Boys,89.81,2,Bronson Williams,North Crowley,82.19,231.33,136.08,226.8,594.21,Single-ply,SBD,M
Boys,89.81,3,Marcelous Singleteary,Mansfield Timberview,82.33,206.38,124.74,233.6,564.72,Single-ply,SBD,M
Boys,82.1,4,Rick Aguillon,Castleberry,77.84,233.6,136.08,188.24,557.92,Single-ply,SBD,M
Boys,82.1,5,Jose Ramirez #3,Fort Worth North Side,81.01,183.7,122.47,238.14,544.31,Single-ply,SBD,M
Boys,82.1,6,David Mann,Mansfield Timberview,79.02,206.38,124.74,204.12,535.24,Single-ply,SBD,M
Boys,82.1,7,JT Taylor,Burleson,78.65,208.65,129.27,188.24,526.17,Single-ply,SBD,M
Boys,89.81,8,Ben Ohene,Mansfield Summit,82.28,179.17,113.4,213.19,505.76,Single-ply,SBD,M
Boys,82.1,9,Jackie Jenkins,Cedar Hill,77.11,188.24,120.2,192.78,501.22,Single-ply,SBD,M
Boys,82.1,10,Justin Campos,Fort Worth North Side,79.83,192.78,113.4,195.04,501.22,Single-ply,SBD,M
Boys,82.1,11,Chris Carnes,Burleson,81.56,183.7,138.35,179.17,501.22,Single-ply,SBD,M
Boys,82.1,12,Earnest Cosio,Crowley,81.92,190.51,106.59,188.24,485.34,Single-ply,SBD,M
Boys,82.1,13,Andre Anderson,Cedar Hill,81.01,195.04,81.65,204.12,480.81,Single-ply,SBD,M
Boys,82.1,14,Patrick Hernandez,Mansfield Timberview,81.01,190.51,117.93,170.1,478.54,Single-ply,SBD,M
Boys,82.1,15,Keynen Smith,Fort Worth Arlington Heights,77.93,188.24,108.86,172.37,469.47,Single-ply,SBD,M
Boys,82.1,16,Jordan Green #6,Fort Worth Trimble Tech,77.11,181.44,88.45,192.78,462.66,Single-ply,SBD,M
Boys,82.1,17,JR Rayford,Cedar Hill,78.65,170.1,102.06,181.44,453.59,Single-ply,SBD,M
Boys,82.1,18,Scott Froman,Fort Worth Paschal,80.38,170.1,120.2,163.29,453.59,Single-ply,SBD,M
Boys,82.1,19,Jacob Edwards,Crowley,81.28,181.44,120.2,151.95,453.59,Single-ply,SBD,M
Boys,82.1,20,Chris Lampkins,Midlothian,81.01,170.1,104.33,172.37,446.79,Single-ply,SBD,M
Boys,82.1,21,Brandon Thomas,Mansfield,76.02,151.95,120.2,172.37,444.52,Single-ply,SBD,M
Boys,82.1,22,Isiah Lewis,Cedar Hill,77.56,174.63,90.72,158.76,424.11,Single-ply,SBD,M
Boys,89.81,23,Gustavo Angeles,Fort Worth Trimble Tech,82.19,174.63,68.04,181.44,424.11,Single-ply,SBD,M
Boys,82.1,24,Erik Williams #1,Crowley,80.92,163.29,92.99,163.29,419.57,Single-ply,SBD,M
Boys,82.1,25,Ben Adams,Cedar Hill,78.93,136.08,90.72,158.76,385.55,Single-ply,SBD,M
Boys,82.1,26,Nathan Lykins,Midlothian,80.01,136.08,86.18,151.95,374.21,Single-ply,SBD,M
Boys,82.1,27,Antonio Nunez,Fort Worth Trimble Tech,78.74,142.88,79.38,149.69,371.95,Single-ply,SBD,M
Boys,82.1,28,Josh Rodman,Castleberry,75.21,127.01,88.45,147.42,362.87,Single-ply,SBD,M
Boys,82.1,29,Chris Luna,Castleberry,79.74,136.08,81.65,127.01,344.73,Single-ply,SBD,M
Boys,82.1,30,Fernando Flores,Fort Worth Polytechnic,81.92,117.93,77.11,136.08,331.12,Single-ply,SBD,M
Boys,89.81,31,Fabio Rosalas,Fort Worth Trimble Tech,82.19,117.93,56.7,127.01,301.64,Single-ply,SBD,M
Boys,82.1,DQ,Riley Harbert,Plano John Paul II,82.1,156.49,,,,Single-ply,SBD,M
Boys,82.1,DQ,Gustavo Garcia,Fort Worth Polytechnic,81.83,133.81,,,,Single-ply,SBD,M
Boys,89.81,DQ,Stacey Cooper,Carrollton Creekview,82.28,233.6,108.86,,,Single-ply,SBD,M
Boys,82.1,DQ,James Dye,Burleson,78.38,165.56,,,,Single-ply,SBD,M
Boys,89.81,1,Shawn Sanders,Everman,89.54,251.74,156.49,258.55,666.78,Single-ply,SBD,M
Boys,89.81,2,Stefan Arias,Burleson,88.36,254.01,163.29,217.72,635.03,Single-ply,SBD,M
Boys,99.79,3,Reggie Brooks,Burleson,89.9,229.06,151.95,249.48,630.49,Single-ply,SBD,M
Boys,89.81,4,Scott Scarbrough,Burleson,85.37,238.14,147.42,238.14,623.69,Single-ply,SBD,M
Boys,89.81,5,Ozy Ejim,Mansfield Summit,86.36,226.8,131.54,258.55,616.89,Single-ply,SBD,M
Boys,89.81,6,Kentrell Joyner,Mansfield,84.82,204.12,124.74,226.8,555.65,Single-ply,SBD,M
Boys,89.81,7,Cedric Shaw,Everman,85.82,217.72,106.59,204.12,528.44,Single-ply,SBD,M
Boys,89.81,8,Marcus Shelton,Castleberry,83.91,190.51,113.4,204.12,508.02,Single-ply,SBD,M
Boys,89.81,9,John Blair,Cleburne,82.64,195.04,122.47,188.24,505.76,Single-ply,SBD,M
Boys,89.81,10,Safari Bolden,Cedar Hill,89.54,181.44,111.13,206.38,498.95,Single-ply,SBD,M
Boys,89.81,11,Keenan Scott,Cedar Hill,85.73,183.7,108.86,197.31,489.88,Single-ply,SBD,M
Boys,89.81,12,Christian George,Fort Worth Polytechnic,89.81,176.9,120.2,181.44,478.54,Single-ply,SBD,M
Boys,99.79,13,Seth Gamez,Fort Worth Trimble Tech,89.99,204.12,99.79,172.37,476.27,Single-ply,SBD,M
Boys,89.81,14,Derek Chase,Cedar Hill,85.18,170.1,102.06,176.9,449.06,Single-ply,SBD,M
Boys,89.81,15,Adrian Williams,Carrollton Creekview,87.54,176.9,99.79,172.37,449.06,Single-ply,SBD,M
Boys,89.81,16,Joe Winfrey,Fort Worth Arlington Heights,83.01,151.95,95.25,192.78,439.98,Single-ply,SBD,M
Boys,89.81,17,Edwin Hinojosa,Fort Worth Arlington Heights,88.18,170.1,104.33,165.56,439.98,Single-ply,SBD,M
Boys,89.81,18,Cameron Bennett,Cedar Hill,87.91,158.76,115.67,163.29,437.72,Single-ply,SBD,M
Boys,89.81,19,Chris Narrarro,North Crowley,89.36,163.29,102.06,156.49,421.84,Single-ply,SBD,M
Boys,89.81,20,Jose Campos,Fort Worth Polytechnic,86.91,133.81,108.86,151.95,394.63,Single-ply,SBD,M
Boys,89.81,21,Arturo Padilla,Fort Worth North Side,85.64,136.08,79.38,165.56,381.02,Single-ply,SBD,M
Boys,89.81,22,Javn Rangel,Fort Worth Polytechnic,86.18,104.33,74.84,145.15,324.32,Single-ply,SBD,M
Boys,89.81,DQ,Travis Bravdes,Plano John Paul II,88.18,163.29,,,,Single-ply,SBD,M
Boys,99.79,1,Tevin Jenkins,Everman,95.16,265.35,145.15,276.69,687.19,Single-ply,SBD,M
Boys,99.79,2,Blake Lilly,Mansfield,95.07,263.08,165.56,249.48,678.12,Single-ply,SBD,M
Boys,99.79,3,Dayrell Freeman,Crowley,97.52,272.16,142.88,229.06,644.1,Single-ply,SBD,M
Boys,99.79,4,Brian Ngwa,Mansfield Timberview,95.16,233.6,145.15,238.14,616.89,Single-ply,SBD,M
Boys,99.79,5,Michael Stanley #3,Burleson,95.44,238.14,147.42,215.46,601.01,Single-ply,SBD,M
Boys,99.79,6,Cody Creek,Crowley,91.81,226.8,131.54,231.33,589.67,Single-ply,SBD,M
Boys,99.79,7,Marques Ennett,Mansfield Timberview,95.16,219.99,117.93,217.72,555.65,Single-ply,SBD,M
Boys,99.79,8,Lewis Washington,Mansfield Summit,94.26,190.51,133.81,222.26,546.58,Single-ply,SBD,M
Boys,99.79,9,Jesse Rios,Midlothian,93.17,217.72,129.27,197.31,544.31,Single-ply,SBD,M
Boys,99.79,10,Dub Ingram,Mansfield Legacy,91.81,204.12,127.01,181.44,512.56,Single-ply,SBD,M
Boys,99.79,11,Marcus Trevino,Carrollton Creekview,95.16,210.92,111.13,183.7,505.76,Single-ply,SBD,M
Boys,99.79,12,Conner Stewart,Midlothian,95.8,190.51,120.2,176.9,487.61,Single-ply,SBD,M
Boys,99.79,13,Jeong Seo,Carrollton Creekview,90.99,165.56,108.86,195.04,469.47,Single-ply,SBD,M
Boys,99.79,14,Ty Underwood,Burleson,98.52,183.7,111.13,158.76,453.59,Single-ply,SBD,M
Boys,99.79,15,Kycoe Hill,Crowley,90.26,161.03,113.4,161.03,435.45,Single-ply,SBD,M
Boys,99.79,16,Darius Taylor,Cedar Hill,96.52,181.44,90.72,136.08,408.23,Single-ply,SBD,M
Boys,99.79,17,Tyler Toomey,Fort Worth Polytechnic,98.16,158.76,90.72,158.76,408.23,Single-ply,SBD,M
Boys,99.79,DQ,Justin Haney,Dallas Seagoville,98.43,142.88,,,,Single-ply,SBD,M
Boys,99.79,DQ,Gerry Gallimore,Duncanville,96.16,183.7,,,,Single-ply,SBD,M
Boys,99.79,DQ,Josh Vland,Duncanville,96.52,167.83,,,,Single-ply,SBD,M
Boys,99.79,DQ,Alex Clop,Plano John Paul II,94.26,,,,,Single-ply,SBD,M
Boys,99.79,DQ,Tony Kick,Midlothian,95.89,192.78,,,,Single-ply,SBD,M
Boys,109.77,1,James Miller #2,Crowley,107.77,258.55,147.42,263.08,669.05,Single-ply,SBD,M
Boys,109.77,2,Derrick Ellsworth,Burleson,109.41,260.82,158.76,242.67,662.24,Single-ply,SBD,M
Boys,124.74,3,Derrick Carrington,Burleson,109.95,272.16,131.54,215.46,619.15,Single-ply,SBD,M
Boys,109.77,4,Terry Owens,Fort Worth Trimble Tech,100.88,226.8,149.69,219.99,596.47,Single-ply,SBD,M
Boys,109.77,5,Matthew Hardy #2,Mansfield,102.33,229.06,142.88,206.38,578.33,Single-ply,SBD,M
Boys,109.77,6,Andrew Wiggins,Everman,104.6,233.6,117.93,226.8,578.33,Single-ply,SBD,M
Boys,109.77,7,Sean Young,Cleburne,102.15,215.46,113.4,208.65,537.51,Single-ply,SBD,M
Boys,109.77,8,Earnest Thomas,Fort Worth Arlington Heights,104.51,174.63,138.35,224.53,537.51,Single-ply,SBD,M
Boys,109.77,9,Jeremy Taylor #2,Everman,105.6,204.12,136.08,188.24,528.44,Single-ply,SBD,M
Boys,109.77,10,Shawn Griffin,Castleberry,101.15,210.92,104.33,201.85,517.1,Single-ply,SBD,M
Boys,109.77,11,D. Lewis #1,Cedar Hill,102.51,204.12,108.86,204.12,517.1,Single-ply,SBD,M
Boys,109.77,12,Roger Carlson,Mansfield Timberview,106.05,217.72,102.06,190.51,510.29,Single-ply,SBD,M
Boys,109.77,13,Jaylen Hill,North Crowley,105.51,172.37,108.86,206.38,487.61,Single-ply,SBD,M
Boys,109.77,14,John Sackville,Carrollton Creekview,105.87,195.04,111.13,170.1,476.27,Single-ply,SBD,M
Boys,109.77,15,Jose Guerro,Mansfield Legacy,105.23,185.97,117.93,170.1,474,Single-ply,SBD,M
Boys,109.77,16,Jesse Armendariz,Fort Worth North Side,108.23,188.24,102.06,183.7,474,Single-ply,SBD,M
Boys,109.77,17,Jaun Alvarez,Fort Worth Polytechnic,104.78,170.1,97.52,174.63,442.25,Single-ply,SBD,M
Boys,109.77,18,Javier Padilla,Fort Worth Trimble Tech,102.15,158.76,106.59,161.03,426.38,Single-ply,SBD,M
Boys,109.77,19,Felipe Aquiniga,Everman,104.69,136.08,104.33,147.42,387.82,Single-ply,SBD,M
Boys,109.77,20,Muhye Aby Hammafta,North Crowley,102.42,106.59,92.99,158.76,358.34,Single-ply,SBD,M
Boys,109.77,DQ,Kimball Williams,North Crowley,105.51,226.8,136.08,,,Single-ply,SBD,M
Boys,124.74,1,Devin Benton,Mansfield Summit,110.31,222.26,165.56,244.94,632.76,Single-ply,SBD,M
Boys,124.74,2,Terrance Newsom,Mansfield Summit,121.74,267.62,131.54,215.46,614.62,Single-ply,SBD,M
Boys,124.74,3,Fred Gipson,Everman,117.84,219.99,167.83,215.46,603.28,Single-ply,SBD,M
Boys,124.74,4,Heath LeMoine,Midlothian,121.93,260.82,129.27,206.38,596.47,Single-ply,SBD,M
Boys,124.74,5,Tajh Long,Mansfield Summit,111.58,254.01,124.74,181.44,560.19,Single-ply,SBD,M
Boys,124.74,6,Pedro Rojas,Dallas Seagoville,120.02,197.31,158.76,188.24,544.31,Single-ply,SBD,M
Boys,124.74,7,Kewrick Robinson,Everman,124.28,229.06,104.33,204.12,537.51,Single-ply,SBD,M
Boys,124.74,8,Brent Cavghran,Carrollton Creekview,118.48,217.72,115.67,188.24,521.63,Single-ply,SBD,M
Boys,124.74,9,Luis Vega,Fort Worth North Side,111.49,204.12,106.59,208.65,519.36,Single-ply,SBD,M
Boys,124.74,10,Mike Harris #2,Fort Worth Trimble Tech,120.66,199.58,124.74,195.04,519.36,Single-ply,SBD,M
Boys,124.74,11,Rodney Siders,Duncanville,121.74,204.12,124.74,188.24,517.1,Single-ply,SBD,M
Boys,124.74,12,Derek Baldeschwiler,Burleson,113.67,210.92,120.2,183.7,514.83,Single-ply,SBD,M
Boys,124.74,13,Steve Rivera,Fort Worth Trimble Tech,124.28,204.12,111.13,199.58,514.83,Single-ply,SBD,M
Boys,124.74,14,Dylan Baldeschiler,Burleson,114.12,208.65,129.27,174.63,512.56,Single-ply,SBD,M
Boys,124.74,15,Albert Torres,Castleberry,122.38,204.12,97.52,192.78,494.42,Single-ply,SBD,M
Boys,124.74,16,Jace Bordern,Cleburne,111.86,192.78,108.86,181.44,483.08,Single-ply,SBD,M
Boys,124.74,17,Ap Pullins,Cedar Hill,118.02,172.37,104.33,181.44,458.13,Single-ply,SBD,M
Boys,124.74,18,Anthony Zapata,Everman,118.02,195.04,86.18,170.1,451.32,Single-ply,SBD,M
Boys,124.74,19,Mario Preyez,Fort Worth Trimble Tech,112.85,170.1,95.25,183.7,449.06,Single-ply,SBD,M
Boys,124.74,20,Darius Thomison,Cedar Hill,115.39,158.76,83.91,181.44,424.11,Single-ply,SBD,M
Boys,124.74,21,Juan Benitez,Castleberry,111.58,142.88,90.72,151.95,385.55,Single-ply,SBD,M
Boys,124.74,22,Darion Deen,Fort Worth Trimble Tech,118.02,124.74,61.23,147.42,333.39,Single-ply,SBD,M
Boys,124.74,DQ,Hyland,Fort Worth Paschal,118.39,172.37,,,,Single-ply,SBD,M
Boys,124.74,DQ,Diego Mejia,Everman,119.75,195.04,,,,Single-ply,SBD,M
Boys,124.74,DQ,Cornelius Henderson,Duncanville,110.68,,,,,Single-ply,SBD,M
Boys,124.74,DQ,Jared Hughes,Plano John Paul II,115.21,,,,,Single-ply,SBD,M
Boys,124.74+,1,Dominique Smith #2,Everman,139.62,306.17,176.9,244.94,728.02,Single-ply,SBD,M
Boys,124.74+,2,Jordan Hodgson,Mansfield,138.53,249.48,170.1,226.8,646.37,Single-ply,SBD,M
Boys,124.74+,3,Bobby Lynch,Burleson,137.17,247.21,158.76,217.72,623.69,Single-ply,SBD,M
Boys,124.74+,4,Homer Vaughan,Cleburne,139.53,238.14,163.29,199.58,601.01,Single-ply,SBD,M
Boys,124.74+,5,Orlando Carodana,Mansfield Timberview,153.59,213.19,117.93,222.26,553.38,Single-ply,SBD,M
Boys,124.74+,6,Alex Deeds,Fort Worth Paschal,143.88,229.06,129.27,192.78,551.11,Single-ply,SBD,M
Boys,124.74+,7,Jimmy Miller,Mansfield Summit,176.99,197.31,113.4,204.12,514.83,Single-ply,SBD,M
Boys,124.74+,8,Yanko Kouachen,Carrollton Creekview,135.81,231.33,95.25,181.44,508.02,Single-ply,SBD,M
Boys,124.74+,9,Willie Jones,Cedar Hill,133.99,167.83,129.27,163.29,460.4,Single-ply,SBD,M
Boys,124.74+,DQ,Jeremy Miller,Mansfield Timberview,145.78,249.48,,,,Single-ply,SBD,M
Boys,124.74+,DQ,Jeff Reynolds,Midlothian,143.06,183.7,120.2,,,Single-ply,SBD,M
