Place,Name,Sex,BirthDate,Age,Equipment,Division,BodyweightKg,WeightClassKg,Squat1Kg,Squat2Kg,Squat3Kg,Best3SquatKg,Bench1Kg,Bench2Kg,Bench3Kg,Best3BenchKg,Deadlift1Kg,Deadlift2Kg,Deadlift3Kg,Best3DeadliftKg,TotalKg,Event
1,Sylwia Malho,F,1980-11-02,,Raw,F_MR_1_ABPU,73.9,75,65,70,75,75,40,-45,45,45,100,115,125,125,245,SBD
1,Kirsty Holmes #1,F,1978-05-09,,Raw,F_MR_2_ABPU,59.2,60,-85,85,-92.5,85,45,-50,-50,45,140,150,-155,150,280,SBD
1,Adriana Meredith,F,1978-09-18,,Raw,F_MR_2_ABPU,92,100,80,90,95,95,50,55,60,60,110,120,125,125,280,SBD
1,Shauneen McMullan,F,1988-11-02,,Raw,F_OR_ABPU,66.75,67.5,52.5,65,72.5,72.5,35,40,42.5,42.5,95,112.5,-122.5,112.5,227.5,SBD
1,Charlotte Clement,F,1992-10-14,,Raw,F_OR_ABPU,73.15,75,100,110,120,120,55,60,65,65,125,135,145,145,330,SBD
1,Claudia Kennell,F,2006-06-05,,Raw,F_TR_2_ABPU,54.35,56,-80,80,87.5,87.5,37.5,42.5,-47.5,42.5,95,105,-115,105,235,SBD
1,Holly McDonagh,F,2002-07-09,,Wraps,F_JCR_ABPU,59.75,60,112.5,122.5,-127.5,122.5,52.5,-57.5,-57.5,52.5,110,115,122.5,122.5,297.5,SBD
2,Remi de Burgh Leather,F,2003-11-18,,Raw,F_JCR_ABPU,59.2,60,105,112.5,-117.5,112.5,50,55,-60,55,115,-125,-130,115,282.5,SBD
1,Amy Dixon,F,1981-01-16,,Wraps,F_MCR_1_ABPU,83.2,90,97.5,102.5,107.5,107.5,62.5,67.5,70,70,137.5,142.5,145,145,322.5,SBD
1,Megan Huggins,F,1996-11-19,,Wraps,F_OCR_ABPU,54.85,56,110,117.5,122.5,122.5,55,60,62.5,62.5,150,-157.5,-157.5,150,335,SBD
1,Siobhan Read,F,1990-04-13,,Wraps,F_OCR_ABPU,64.25,67.5,132.5,145,150,150,87.5,95,-97.5,95,170,180,-187.5,180,425,SBD
2,Claudia D'Ambrosio,F,1995-01-03,,Raw,F_OCR_ABPU,64.5,67.5,90,92.5,-97.5,92.5,45,47.5,-52.5,47.5,95,102.5,110,110,250,SBD
1,Phoebe Wing,F,1998-11-06,,Wraps,F_OCR_ABPU,115.1,110+,175,190,200,200,65,72.5,80,80,155,175,182.5,182.5,462.5,SBD
1,Rachel Parker-Kemp,F,1995-12-24,,Raw,F_OR_BPU,98.7,100,,,,,65,70,75,75,,,,,75,B
1,Rachel Parker-Kemp,F,1995-12-24,,Unlimited,F_OEU_BPU,98.7,100,,,,,85,-100,-100,85,,,,,85,B
1,Ewa Lewandowska,F,1988-11-15,,Unlimited,F_OEU_ABPU,59.3,60,,,,,105,-112.5,112.5,112.5,,,,,112.5,B
1,Caitlin Hayes #2,F,1995-02-03,,Unlimited,F_OEU_ABPU,108.25,110,,,,,110,120,127.5,127.5,,,,,127.5,B
1,Lucy Doyle,F,1995-04-25,,Raw,F_OR_ABPU,50.7,52,,,,,,,,,95,105,-110,105,105,D
1,Ashley Westman,M,1982-03-14,,Raw,M_MR_1_ABPU,89.4,90,205,-215,-215,205,155,-162.5,162.5,162.5,250,-262.5,-262.5,250,617.5,SBD
1,Joe Bastin,M,1997-05-16,,Raw,M_OR_BPU,88.1,90,210,225,-240,225,145,-157.5,157.5,157.5,220,240,260,260,642.5,SBD
1,Ben Ayling,M,1996-04-21,,Raw,M_OR_ABPU,109.1,110,170,180,-185,180,117.5,120,122.5,122.5,215,227.5,235,235,537.5,SBD
1,Isi Ejele,M,1992-11-26,,Raw,M_OR_ABPU,122,125,200,220,240,240,150,160,170,170,280,300,312.5,312.5,722.5,SBD
1,Oliver Castillo #2,M,2005-12-27,,Raw,M_TR_2_ABPU,89.9,90,125,135,145,145,97.5,105,110,110,200,-215,-215,200,455,SBD
1,Jason Asante,M,2005-06-14,,Raw,M_TR_3_ABPU,88.1,90,175,185,-195,185,125,132.5,140,140,225,250,260,260,585,SBD
1,Memphis Lindley,M,2003-11-21,,Wraps,M_JCR_ABPU,79.1,82.5,185,195,205,205,115,122.5,-125,122.5,185,200,207.5,207.5,535,SBD
1,Ewan Tippett-Malcolm,M,2000-12-30,,Wraps,M_JCR_ABPU,88.9,90,205,217.5,225,225,112.5,120,-127.5,120,250,265,-272.5,265,610,SBD
1,Neil Morgan #2,M,1950-10-08,,Wraps,M_MCR_7_ABPU,107.1,110,-100,100,120,120,80,85,90,90,130,140,150,150,360,SBD
1,Christopher Whitaker #2,M,1989-10-23,,Wraps,M_OCR_BPU,93.2,100,235,-247.5,247.5,247.5,135,140,145,145,272.5,292.5,300,300,692.5,SBD
2,Tony Neville,M,1970-08-01,,Wraps,M_OCR_BPU,96.7,100,160,170,180,180,120,127.5,132.5,132.5,205,217.5,225,225,537.5,SBD
1,William Jones #1,M,1997-04-25,,Wraps,M_OCR_BPU,120.8,125,285,305,-320,305,182.5,-192.5,192.5,192.5,310,330,-350,330,827.5,SBD
2,Matt Pullen,M,1987-06-14,,Wraps,M_OCR_BPU,122.1,125,295,-315,-315,295,190,200,205,205,295,315,-335,315,815,SBD
3,Christopher Park,M,1997-06-09,,Wraps,M_OCR_BPU,112,125,280,295,305,305,152.5,160,165,165,310,330,-345,330,800,SBD
1,Lewis Griffin,M,1996-01-26,,Wraps,M_OCR_BPU,132,140,-280,280,300,300,160,180,-190,180,280,320,330,330,810,SBD
1,Dekwan Elfizgha,M,1993-08-12,,Raw,M_OCR_BPU,155.5,140+,305,330,,330,185,195,-200,195,285,310,325,325,850,SBD
1,Jake Ruffle,M,1993-08-10,,Wraps,M_OCR_ABPU,81.9,82.5,190,200,210,210,105,115,-122.5,115,210,220,-225,220,545,SBD
1,Glenn Merry,M,1992-08-11,,Wraps,M_OCR_ABPU,89.5,90,210,230,-250,230,140,150,155,155,220,240,-255,240,625,SBD
1,Julian McKerrow,M,1990-06-30,,Wraps,M_OCR_ABPU,124,125,252.5,262.5,275,275,180,-190,190,190,290,300,310,310,775,SBD
1,Tom Warwick,M,2007-07-16,,Wraps,M_TCR_2_ABPU,74.1,75,150,160,-170,160,90,100,110,110,175,190,-195,190,460,SBD
1,Thomas Levy,M,2007-03-29,,Wraps,M_TCR_2_ABPU,97.8,100,160,170,175,175,75,80,85,85,175,-182.5,182.5,182.5,442.5,SBD
1,Adam Malton,M,2005-10-11,,Wraps,M_TCR_3_BPU,79.1,82.5,195,-210,-225,195,120,127.5,-135,127.5,210,220,230,230,552.5,SBD
1,Josh Wright #5,M,1996-06-24,,Single-ply,M_OES_ABPU,99.6,100,245,-255,255,255,190,200,,200,230,245,-250,245,700,SBD
DQ,Mark Moss,M,1963-03-25,,Multi-ply,M_MEM_5_ABPU,99.3,100,-180,-180,,,,,,,,,,,,SBD
1,George Hurt,M,1999-06-04,,Multi-ply,M_OEM_BPU,116.8,125,370,400,,400,260,270,-280,270,305,330,340,340,1010,SBD
1,Samy Hocini,M,1988-07-25,,Raw,M_OR_ABPU,81,82.5,,,,,90,100,112.5,112.5,,,,,112.5,B
1,Alexandre Seytre,M,1986-08-08,,Raw,M_OR_ABPU,88.2,90,,,,,100,110,120,120,,,,,120,B
1,George Purchase,M,,21,Single-ply,M_JES_BPU,113.8,125,,,,,170,185,-200,185,,,,,185,B
1,Joshua Bullard,M,2004-05-18,,Single-ply,M_TES_3_ABPU,89.55,90,,,,,185,192.5,-200,192.5,,,,,192.5,B
1,Barnaby Spear,M,2004-03-16,,Single-ply,M_TES_3_ABPU,104.45,110,,,,,187.5,-200,-200,187.5,,,,,187.5,B
1,Michael Atrissi,M,2002-09-13,,Unlimited,M_JEU_ABPU,94.2,100,,,,,155,170,175,175,,,,,175,B
1,Sam Nicholls,M,2003-05-21,,Unlimited,M_JEU_ABPU,111.3,125,,,,,225,275,305,305,,,,,305,B
DQ,Richard Evans,M,1967-06-11,,Unlimited,M_MEU_4_ABPU,135.15,140,,,,,-230,-230,-230,,,,,,,B
1,Dan Stewart,M,1993-06-12,,Unlimited,M_OEU_BPU,124.4,125,,,,,412.5,-430,-430,412.5,,,,,412.5,B
1,Rob Hunter,M,1988-02-11,,Unlimited,M_OEU_ABPU,93.3,100,,,,,265,-280,-280,265,,,,,265,B
1,Phil Horwood,M,1985-03-26,,Unlimited,M_OEU_ABPU,119.8,125,,,,,365,-385,-385,365,,,,,365,B
1,Josh Wright #5,M,1996-06-24,,Single-ply,M_OES_ABPU,99.6,100,,,,,,,,,230,245,-250,245,245,D
